{
  "Default": {
    "serverName": "",
    "channelName": "",
    "textChannelName": "",
    "region": "",
    "gamePlaying": "",
    "prefix": ""
  },
  "Keys": {
    "discord": ""
  },
  "ytdlOptions" : {
    "quality": "highest",
    "filter": "audioonly"
  },
  "youtubeSearchOpts": {
    "maxResults": 1,
    "key": "youtubeKey"
  }
}
